{"data":[{"id":732,"titre":"Optimizing RAG at Scale: Chunking, Retrieval, and the Bayesian Search That Cut Latency 40%","url":"https://dev.to/imus_d7584cbc8ee9b0336256/optimizing-rag-at-scale-chunking-retrieval-and-the-bayesian-search-that-cut-latency-40-5264","resume":"Cet article explore les méthodes pour optimiser les systèmes de RAG (Retrieval Augmented Generation) à grande échelle. Il met en avant l'importance du découpage en chunks, de la récupération efficace des informations et de l'utilisation d'une recherche bayésienne pour réduire le temps de latence de 40%.","source":"dev.to","categorie_mistral":"PRO","score_mistral":4,"themes_mistral":["IA/ML","Architecture","Pratiques/Qualité"],"themes_ml":["Architecture"],"score_confiance_ml":0.7796480655670166,"tags":["rag","optimisation","échelle","récupération d'informations","recherche bayésienne"],"date_article":"2026-07-20T20:40:14.000Z","date_collecte":"2026-07-20T20:53:09.318Z"},{"id":733,"titre":"Building Production-Grade LLM Evaluation Pipelines: From Vibes to Metrics","url":"https://dev.to/imus_d7584cbc8ee9b0336256/building-production-grade-llm-evaluation-pipelines-from-vibes-to-metrics-37o9","resume":"Cet article décrit comment construire des pipelines d'évaluation de modèles de langage en production. Il aborde les différents aspects à prendre en compte pour créer des pipelines robustes et efficaces.","source":"dev.to","categorie_mistral":"PRO","score_mistral":4,"themes_mistral":["IA/ML","DevOps/Infrastructure"],"themes_ml":["Productivité/Outils"],"score_confiance_ml":0.7021325826644897,"tags":["évaluation de modèles de langage","pipelines","production"],"date_article":"2026-07-20T20:40:12.000Z","date_collecte":"2026-07-20T20:53:21.360Z"},{"id":734,"titre":"We built one AI tutor for five completely different subjects — here's the routing layer that keeps it from falling over","url":"https://dev.to/devadath_hk/we-built-one-ai-tutor-for-five-completely-different-subjects-heres-the-routing-layer-that-keeps-15f4","resume":"Cet article décrit la construction d'un tutor AI pour cinq matières différentes et présente la couche de routage qui permet de maintenir l'équilibre.","source":"dev.to","categorie_mistral":"PRO","score_mistral":4,"themes_mistral":["IA/ML","Développement","Pratiques/Qualité"],"themes_ml":["Développement","IA/ML","Sécurité","Architecture"],"score_confiance_ml":0.9228065609931946,"tags":["ia","tutoriel","éducation","multimatière","routage"],"date_article":"2026-07-20T20:30:00.000Z","date_collecte":"2026-07-20T20:53:32.952Z"},{"id":735,"titre":"I Built an AI Memory Agent That Forgets on Purpose — Then Spent Two Days Proving It Actually Works","url":"https://dev.to/_boweii/i-built-an-ai-memory-agent-that-forgets-on-purpose-then-spent-two-days-proving-it-actually-works-2b87","resume":"Cet article présente un agent de mémoire AI qui a été conçu pour oublier intentionnellement. L'auteur a passé deux jours à prouver que cela fonctionne.","source":"dev.to","categorie_mistral":"PRO","score_mistral":3,"themes_mistral":["IA/ML","Développement"],"themes_ml":["Développement","Architecture","Sécurité","IA/ML"],"score_confiance_ml":0.8869004845619202,"tags":["ia","mémoire","oubli","projet","développement"],"date_article":"2026-07-20T20:27:42.000Z","date_collecte":"2026-07-20T20:53:45.286Z"},{"id":736,"titre":"Optimizing RAG at Scale: Chunking, Retrieval, and the Bayesian Search That Cut Latency 40%","url":"https://dev.to/imus_d7584cbc8ee9b0336256/optimizing-rag-at-scale-chunking-retrieval-and-the-bayesian-search-that-cut-latency-40-4d8i","resume":"Cet article explore les optimisations de RAG (Retrieval-Augmented Generation) à grande échelle. Il met en avant l'importance du découpage en chunks, de la récupération efficace et d'une recherche bayésienne pour réduire le temps de latence de 40%.","source":"dev.to","categorie_mistral":"PRO","score_mistral":4,"themes_mistral":["IA/ML","Pratiques/Qualité"],"themes_ml":["Sécurité","Développement"],"score_confiance_ml":0.7441311478614807,"tags":["rag","optimisation","échelle","récupération","bayésien"],"date_article":"2026-07-20T20:25:15.000Z","date_collecte":"2026-07-20T20:53:57.777Z"},{"id":747,"titre":"Java News Roundup: Value Objects, WildFly 41, TornadoVM, LangChain4j, Oracle AI Agent Studio","url":"https://www.infoq.com/news/2026/07/java-news-roundup-jul13-2026/?utm_campaign=infoq_content&utm_source=infoq&utm_medium=feed&utm_term=Architecture+%26+Design","resume":"Cet article présente un tour d'horizon des dernières nouvelles de Java, y compris les Value Objects, WildFly 41, TornadoVM, LangChain4j et Oracle AI Agent Studio.","source":"InfoQ Architecture","categorie_mistral":"PRO","score_mistral":3,"themes_mistral":["Développement","Architecture"],"themes_ml":["Développement"],"score_confiance_ml":0.9296538233757019,"tags":["java","value objects","wildfly","tornadovm","langchain4j"],"date_article":"2026-07-20T18:45:00.000Z","date_collecte":"2026-07-20T20:56:09.011Z"},{"id":727,"titre":"$100 million for open source: A milestone built by the community","url":"https://github.blog/open-source/maintainers/100-million-for-open-source-a-milestone-built-by-the-community/","resume":"Cet article annonce que GitHub a investi 100 millions de dollars dans l'open source, mettant en avant l'importance de la communauté dans ce domaine.","source":"GitHub Blog","categorie_mistral":"PRO","score_mistral":3,"themes_mistral":["Développement","Pratiques/Qualité"],"themes_ml":["Développement","Architecture"],"score_confiance_ml":0.9629416465759277,"tags":["open source","investissement","communauté"],"date_article":"2026-07-20T16:00:00.000Z","date_collecte":"2026-07-20T20:52:08.719Z"},{"id":748,"titre":"DoorDash Uses Envoy and Valkey for a 1.5M RPS Proxy Cache with 99.99999% Availability","url":"https://www.infoq.com/news/2026/07/doordash-entity-cache-proxy/?utm_campaign=infoq_content&utm_source=infoq&utm_medium=feed&utm_term=Architecture+%26+Design","resume":"DoorDash utilise Envoy et Valkyrie pour mettre en place un cache proxy capable de gérer 1,5 million de requêtes par seconde avec une disponibilité de 99,9999%.","source":"InfoQ Architecture","categorie_mistral":"PRO","score_mistral":4,"themes_mistral":["Architecture","DevOps/Infrastructure"],"themes_ml":["Sécurité","DevOps/Infrastructure","Pratiques/Qualité","Développement","IA/ML","Productivité/Outils","Architecture"],"score_confiance_ml":0.9773434400558472,"tags":["cache proxy","disponibilité","gestion de charge","doordash"],"date_article":"2026-07-20T13:53:00.000Z","date_collecte":"2026-07-20T20:56:21.805Z"},{"id":749,"titre":"Three InfoQ Certification Cohorts Start This August: Meet the Facilitators","url":"https://www.infoq.com/news/2026/07/infoq-online-cohorts-2026/?utm_campaign=infoq_content&utm_source=infoq&utm_medium=feed&utm_term=Architecture+%26+Design","resume":"Cet article annonce le lancement de trois cohortes de certification InfoQ en août, avec la présentation des facilitateurs. Il s'agit d'une opportunité pour les professionnels de la tech de se perfectionner dans leur domaine.","source":"InfoQ Architecture","categorie_mistral":"PRO","score_mistral":3,"themes_mistral":["Architecture","Pratiques/Qualité","Productivité/Outils"],"themes_ml":["Développement","Sécurité"],"score_confiance_ml":0.8748418688774109,"tags":["certification","formation","infoq","professionnels de la tech","opportunité de perfectionnement"],"date_article":"2026-07-20T13:00:00.000Z","date_collecte":"2026-07-20T20:56:33.432Z"},{"id":712,"titre":"ArgoCon Japan 2026: Meeting the Maintainers, enterprise insights, and the road to Argo CD 3.5","url":"https://www.cncf.io/blog/2026/07/20/argocon-japan-2026-meeting-the-maintainers-enterprise-insights-and-the-road-to-argo-cd-3-5/","resume":"Cet article présente la conférence ArgoCon Japan 2026, qui met en avant les contributeurs d'Argo CD et fournit des aperçus sur les entreprises utilisant cette technologie. Il aborde également les dernières mises à jour et les plans pour la version 3.5 d'Argo CD.","source":"CNCF Blog","categorie_mistral":"PRO","score_mistral":3,"themes_mistral":["DevOps/Infrastructure","Architecture","Pratiques/Qualité"],"themes_ml":[],"score_confiance_ml":0.27100175619125366,"tags":["argo cd","gestion de configuration","entreprise","mises à jour","conférence"],"date_article":"2026-07-20T12:34:00.000Z","date_collecte":"2026-07-20T20:49:09.943Z"},{"id":750,"titre":"Podcast: Strands Agents with Clare Liguori","url":"https://www.infoq.com/podcasts/strands-agents/?utm_campaign=infoq_content&utm_source=infoq&utm_medium=feed&utm_term=Architecture+%26+Design","resume":"Cet article présente un podcast avec Clare Liguori, qui discute de l'utilisation de l'intelligence artificielle dans les agences gouvernementales. Elle explique comment l'IA peut aider à améliorer l'efficacité et la prise de décision dans ces organisations.","source":"InfoQ Architecture","categorie_mistral":"PRO","score_mistral":3,"themes_mistral":["IA/ML","Architecture"],"themes_ml":["IA/ML"],"score_confiance_ml":0.7679531574249268,"tags":["intelligence artificielle","agences gouvernementales","prise de décision"],"date_article":"2026-07-20T11:00:00.000Z","date_collecte":"2026-07-20T20:56:45.562Z"},{"id":713,"titre":"Why goodput matters more than throughput for LLM serving","url":"https://www.cncf.io/blog/2026/07/20/why-goodput-matters-more-than-throughput-for-llm-serving/","resume":"Cet article explique pourquoi le 'goodput' est plus important que le 'throughput' pour le service de grands modèles linguistiques. Il met en avant l'importance de la qualité des données et de la latence pour une expérience utilisateur optimale.","source":"CNCF Blog","categorie_mistral":"PRO","score_mistral":4,"themes_mistral":["IA/ML","Architecture","Productivité/Outils"],"themes_ml":[],"score_confiance_ml":0.33591940999031067,"tags":["llm","goodput","throughput","latence","qualité des données"],"date_article":"2026-07-20T11:00:00.000Z","date_collecte":"2026-07-20T20:49:21.070Z"},{"id":751,"titre":"AWS Releases Loom, an Open-Source Reference Platform for Governing AI Agents at Enterprise Scale","url":"https://www.infoq.com/news/2026/07/loom-aws-agent-platform/?utm_campaign=infoq_content&utm_source=infoq&utm_medium=feed&utm_term=Architecture+%26+Design","resume":"AWS lance Loom, une plateforme de référence open source pour la gouvernance des agents AI à grande échelle en entreprise.","source":"InfoQ Architecture","categorie_mistral":"PRO","score_mistral":4,"themes_mistral":["IA/ML","Architecture","Sécurité"],"themes_ml":["Sécurité","IA/ML","Développement","DevOps/Infrastructure"],"score_confiance_ml":0.965442419052124,"tags":["ia/ml","gouvernance","open source"],"date_article":"2026-07-20T10:04:00.000Z","date_collecte":"2026-07-20T20:56:57.016Z"},{"id":677,"titre":"The Real App-Building Kit for Non-Technical Founders: Trustworthy AI-Powered Development","url":"https://dev.to/davekurian/the-real-app-building-kit-for-non-technical-founders-trustworthy-ai-powered-development-2jl8","resume":"Cet article présente une solution d'application de développement basée sur l'IA pour les fondateurs non techniques. Elle permet de créer des applications sans connaissances techniques.","source":"dev.to","categorie_mistral":"PRO","score_mistral":4,"themes_mistral":["IA/ML","Développement"],"themes_ml":["Développement","Productivité/Outils","IA/ML"],"score_confiance_ml":0.92704176902771,"tags":["ia","développement","non-technique"],"date_article":"2026-07-18T13:05:49.000Z","date_collecte":"2026-07-18T13:15:03.807Z"},{"id":678,"titre":"Lucy 2.5 Real-Time AI Video Editing: Decart's 40ms Live Stream Revolution","url":"https://dev.to/khuram_youraj_6c4b6780ae1/lucy-25-real-time-ai-video-editing-decarts-40ms-live-stream-revolution-1agl","resume":"L'article présente Lucy 2.5, une technologie de montage vidéo en temps réel basée sur l'IA, capable de traiter des flux en direct avec un délai de 40 ms. Cette innovation permet une édition vidéo en temps réel, offrant de nouvelles possibilités pour les diffuseurs en direct.","source":"dev.to","categorie_mistral":"PRO","score_mistral":4,"themes_mistral":["IA/ML","Productivité/Outils"],"themes_ml":["IA/ML","Développement"],"score_confiance_ml":0.7917237877845764,"tags":["ia","video editing","real-time processing","live streaming"],"date_article":"2026-07-18T13:01:38.000Z","date_collecte":"2026-07-18T13:15:18.928Z"},{"id":679,"titre":"Why I built a SQL client when 10 already exist — then let AI agents into it","url":"https://dev.to/gillarohith/why-i-built-a-sql-client-when-10-already-exist-then-let-ai-agents-into-it-4kk4","resume":"L'auteur explique pourquoi il a créé un client SQL alors qu'il en existe déjà 10, et comment il a intégré des agents AI dans son outil.","source":"dev.to","categorie_mistral":"PRO","score_mistral":3,"themes_mistral":["Développement","Pratiques/Qualité"],"themes_ml":["Développement","Architecture","Sécurité","IA/ML","Productivité/Outils","DevOps/Infrastructure"],"score_confiance_ml":0.9629272818565369,"tags":["sql","client","ia","agents","outils"],"date_article":"2026-07-18T12:59:03.000Z","date_collecte":"2026-07-18T13:15:29.112Z"},{"id":680,"titre":"A cut list is not a cut plan: audit kerf and stock assignments with KerfPlan","url":"https://dev.to/nekoautomata/a-cut-list-is-not-a-cut-plan-audit-kerf-and-stock-assignments-with-kerfplan-2kgc","resume":"Cet article technique explique l'importance de différencier une liste de coupes d'une planification de coupes lors de la fabrication de pièces en bois. Il présente KerfPlan, un outil qui aide à auditer les assignations de coupe et de matière première.","source":"dev.to","categorie_mistral":"PRO","score_mistral":3,"themes_mistral":["Architecture","Productivité/Outils"],"themes_ml":[],"score_confiance_ml":0.2919474244117737,"tags":["fabrication","bois","outils","planification","audit"],"date_article":"2026-07-18T12:58:28.000Z","date_collecte":"2026-07-18T13:15:41.224Z"},{"id":681,"titre":"Argo - LLM-native static vulnerability detection","url":"https://dev.to/mr_limitless_abe15f71d2fe/argo-llm-native-static-vulnerability-detection-4k9a","resume":"Argo est une solution de détection de vulnérabilité statique native pour les modèles de langage. Elle permet de détecter les vulnérabilités dans les modèles de langage en utilisant des techniques de détection de vulnérabilité statique.","source":"dev.to","categorie_mistral":"PRO","score_mistral":4,"themes_mistral":["Sécurité","IA/ML"],"themes_ml":["Sécurité","Développement"],"score_confiance_ml":0.998624861240387,"tags":["détection de vulnérabilité","modèles de langage","sécurité"],"date_article":"2026-07-18T12:57:48.000Z","date_collecte":"2026-07-18T13:15:52.129Z"},{"id":697,"titre":"The cost of saying yes has changed","url":"https://github.blog/engineering/the-cost-of-saying-yes-has-changed/","resume":"L'article aborde l'impact des coûts cachés dans le développement de logiciels et comment dire 'non' peut être bénéfique pour l'entreprise.","source":"GitHub Blog","categorie_mistral":"PRO","score_mistral":4,"themes_mistral":["Développement","Pratiques/Qualité"],"themes_ml":["Développement"],"score_confiance_ml":0.9997687339782715,"tags":["coûts cachés","développement logiciel","prise de décision"],"date_article":"2026-07-17T16:46:47.000Z","date_collecte":"2026-07-18T13:19:13.286Z"},{"id":672,"titre":"Eclipse Dataspace Components on AWS: Cost optimization strategies","url":"https://aws.amazon.com/blogs/architecture/eclipse-dataspace-components-on-aws-cost-optimization-strategies/","resume":"Cet article présente des stratégies d'optimisation des coûts pour les composants de l'espace de données Eclipse sur AWS. Il décrit comment utiliser les services AWS pour réduire les coûts tout en maintenant une architecture évolutive et sécurisée.","source":"AWS Architecture","categorie_mistral":"PRO","score_mistral":3,"themes_mistral":["Architecture","DevOps/Infrastructure","Sécurité"],"themes_ml":["Sécurité","Architecture","Développement","DevOps/Infrastructure"],"score_confiance_ml":0.9641826748847961,"tags":["optimisation des coûts","eclipse dataspace components","aws","architecture évolutive","sécurité"],"date_article":"2026-07-17T16:03:47.000Z","date_collecte":"2026-07-18T13:14:02.779Z"}],"pagination":{"page":1,"limit":20,"total":542,"totalPages":28}}
